module Hotel_API

go 1.17

require (
	github.com/gavv/httpexpect v2.0.0+incompatible
	github.com/gavv/httpexpect/v2 v2.3.1
)

require (
	github.com/ajg/form v1.5.1 // indirect
	github.com/andybalholm/brotli v1.0.2 // indirect
	github.com/davecgh/go-spew v1.1.0 // indirect
	github.com/fasthttp-contrib/websocket v0.0.0-20160511215533-1f3b11f56072 // indirect
	github.com/fatih/structs v1.0.0 // indirect
	github.com/google/go-querystring v1.0.0 // indirect
	github.com/gorilla/websocket v1.4.2 // indirect
	github.com/imkira/go-interpol v1.0.0 // indirect
	github.com/klauspost/compress v1.12.2 // indirect
	github.com/moul/http2curl v1.0.0 // indirect
	github.com/pmezard/go-difflib v1.0.0 // indirect
	github.com/sergi/go-diff v1.0.0 // indirect
	github.com/smartystreets/goconvey v1.7.2 // indirect
	github.com/stretchr/testify v1.3.0 // indirect
	github.com/valyala/bytebufferpool v1.0.0 // indirect
	github.com/valyala/fasthttp v1.27.0 // indirect
	github.com/xeipuuv/gojsonpointer v0.0.0-20180127040702-4e3ac2762d5f // indirect
	github.com/xeipuuv/gojsonreference v0.0.0-20180127040603-bd5ef7bd5415 // indirect
	github.com/xeipuuv/gojsonschema v1.1.0 // indirect
	github.com/yalp/jsonpath v0.0.0-20180802001716-5cc68e5049a0 // indirect
	github.com/yudai/gojsondiff v1.0.0 // indirect
	github.com/yudai/golcs v0.0.0-20170316035057-ecda9a501e82 // indirect
	golang.org/x/net v0.0.0-20210510120150-4163338589ed // indirect
	moul.io/http2curl v1.0.1-0.20190925090545-5cd742060b0e // indirect
)
